{
  "app_name": "MyApp",
  "app_id": "com.flutter.sample",
  "android_app_id": "com.flutter.sample",
  "flutter_package_name":"sample",
  "android_package_dir":"{{cookiecutter.app_id | replace('.', '/')}}",
  "_copy_without_render": []
}
